[
    {
        "market": "Binance",
        "pairs": [
            "BTCUSDT",
            "ETHUSDT",
            "LTCUSDT",
            "NEOUSDT",
            "XRPUSDT"
        ]
    },
    {
        "market": "Bitfinex",
        "pairs": [
            "tBTCUST",
            "tETHUST",
            "tLTCUST",
            "tNEOUSD",
            "tXRPUSD"
        ]
    },
    {
        "market": "Poloniex",
        "pairs": [
            "USDT_BTC",
            "USDT_ETH",
            "USDT_LTC",
            "USDT_NEO",
            "USDT_XRP"
        ]
    }
]